Tími 1 - Inngangur að gagnavísindum og R
…
R er með innbyggð föll til að lesa inn gögn. T.d. read.csv fyrir csv skrár.

Eins og með margt annað er búið að búa til pakka sem auðvelda lestur gagna

Tveir mikilvægir pakkar til að lesa inn gögn eru readr (hluti af tidyverse) og readxl

Lestur gagna - csv

mbl <- read_csv("mbl_gagnasett.csv")

Getum litið á gagnasettið með því að slá inn nafnið í Console

mbl

## # A tibble: 10,754 x 17
##    Gata  Stadur    Verd Fasteignamat Brunabotamat Ahvilandi Tegund Byggingarar
##    <chr> <chr>    <dbl>        <dbl>        <dbl>     <dbl> <chr>        <dbl>
##  1 Kvís~ Mosfe~  8.69e7     76600000     75010000         0 Par/R~        2009
##  2 Akur~ Kópav~  4.99e7     45450000     40240000         0 Fjölb~        2005
##  3 Fann~ Kópav~  2.89e7     23900000     14400000         0 Fjölb~        1978
##  4 Eski~ Hafna~  4.22e7      3250000            0         0 Fjölb~          NA
##  5 Eski~ Hafna~  4.22e7      3210000            0         0 Fjölb~          NA
##  6 Eski~ Hafna~  4.22e7      3250000            0         0 Fjölb~          NA
##  7 Eski~ Hafna~  4.24e7      3250000            0         0 Fjölb~          NA
##  8 Eski~ Hafna~  4.22e7      3250000            0         0 Fjölb~          NA
##  9 Garð~ Reykj~  5.35e7     45550000     37000000         0 Fjölb~        1991
## 10 Nýbý~ Kópav~ NA                 0            0         0 atv             NA
## # ... with 10,744 more rows, and 9 more variables: Size <dbl>, Herbergi <dbl>,
## #   Svefnherbergi <dbl>, Stofur <dbl>, Badherbergi <dbl>, Inngangur <chr>,
## #   Bilskur <chr>, Dags.sott <date>, Nybygging <chr>

Lestur gagna - Excel

Ef við ætlum aðeins að nota readxl pakkan einsuinni, þ.e. til að lesa inn skjalið, getum við sleppt því að hlaða honum inn með library fallinu og vitnað frekar í fall í pakkanum með ::

fake_pizza <- readxl::read_excel("Fake Pizza Data.xlsx")
fake_pizza

## # A tibble: 200 x 5
##    Rating CostPerSlice HeatSource BrickOven Neighborhood
##     <dbl>        <dbl> <chr>      <lgl>     <chr>       
##  1   0.03         1.75 Gas        FALSE     LittleItaly 
##  2   4.89         2.75 Coal       TRUE      SoHo        
##  3   4.73         4    Wood       TRUE      LittleItaly 
##  4   0.13         1.75 Gas        FALSE     LittleItaly 
##  5   2.45         2.25 Wood       TRUE      Chinatown   
##  6   5            3.75 Coal       TRUE      SoHo        
##  7   2.62         2.5  Gas        FALSE     LES         
##  8   4.38         4    Gas        TRUE      SoHo        
##  9   4.31         2.75 Coal       TRUE      LittleItaly 
## 10   0.12         2.25 Gas        FALSE     Chinatown   
## # ... with 190 more rows
…
